<?xml version="1.0" encoding="utf-8"?>
<!-- Generator: Adobe Illustrator 23.0.3, SVG Export Plug-In . SVG Version: 6.00 Build 0)  -->
<svg version="1.1" id="レイヤー_1" xmlns="http://www.w3.org/2000/svg" xmlns:xlink="http://www.w3.org/1999/xlink" x="0px"
	 y="0px" viewBox="0 0 40 40" style="enable-background:new 0 0 40 40;" xml:space="preserve">
<style type="text/css">
	.st0{fill-rule:evenodd;clip-rule:evenodd;fill:#FFF;}
	.st1{fill-rule:evenodd;clip-rule:evenodd;fill:#FFF;}
</style>
<path class="st0" d="M20,5c0-2.8-9-5-20-5v4v27v4c11,0,20,2.2,20,5c0-2.8,9-5,20-5v-4V4V0C29,0,20,2.2,20,5z M18,6.8v27
	c-2.7-1.4-7.9-2.4-14.1-2.7L4,31V4.1C10.2,4.4,15.3,5.4,18,6.8L18,6.8l0.1,0.1C18.1,6.9,18,6.9,18,6.8z M22,33.8v-27l-0.1,0.1
	c2.7-1.4,7.9-2.5,14.1-2.8V31l0.1,0.1C29.9,31.4,24.7,32.4,22,33.8z"/>
<title>アートボード 1</title>
<path class="st1" d="M0,0v4v27v4c11,0,20,2.2,20,5v-1v-3V9V5C20,2.2,11,0,0,0z M18,6.8v27c-2.7-1.4-7.9-2.4-14.1-2.7L4,31V4.1
	c6.3,0.3,11.5,1.4,14.1,2.8L18,6.8z"/>
</svg>
