<?xml version="1.0" encoding="utf-8"?>
<!-- Generator: Adobe Illustrator 23.0.3, SVG Export Plug-In . SVG Version: 6.00 Build 0)  -->
<svg version="1.1" id="レイヤー_1" xmlns="http://www.w3.org/2000/svg" xmlns:xlink="http://www.w3.org/1999/xlink" x="0px"
	 y="0px" viewBox="0 0 40 32" style="enable-background:new 0 0 40 32;" xml:space="preserve">
<style type="text/css">
	.st0{fill-rule:evenodd;clip-rule:evenodd;fill:#FFF;}
	.st1{fill-rule:evenodd;clip-rule:evenodd;fill:#FFF;}
</style>
<title>アートボード 1</title>
<path class="st0" d="M4.7,2l13.5,14c1.5,1.6,2,1.6,3.5,0L35.3,2L39,3L22.7,19.8c-1.5,1.6-4,1.6-5.5,0L1,3L4.7,2z"/>
<path class="st1" d="M38,0H2C0.9,0,0,0.9,0,2v28c0,1.1,0.9,2,2,2h36c1.1,0,2-0.9,2-2V2C40,0.9,39.1,0,38,0z M36,27
	c0,0.2-0.1,0.4-0.2,0.6c-0.1,0.1-0.2,0.2-0.4,0.3C35.3,28,35.1,28,35,28H5c-0.1,0-0.3,0-0.4-0.1c-0.2-0.1-0.3-0.2-0.4-0.3
	C4.1,27.4,4,27.2,4,27V5c0-0.6,0.4-1,1-1h30c0.6,0,1,0.4,1,1V27z"/>
</svg>
