<?xml version="1.0" encoding="utf-8"?>
<!-- Generator: Adobe Illustrator 23.0.3, SVG Export Plug-In . SVG Version: 6.00 Build 0)  -->
<svg version="1.1" id="レイヤー_1" xmlns="http://www.w3.org/2000/svg" xmlns:xlink="http://www.w3.org/1999/xlink" x="0px"
	 y="0px" viewBox="0 0 100 100" style="enable-background:new 0 0 100 100;" xml:space="preserve">
<style type="text/css">
	.st0{fill:#FFF;}
</style>
<title>アートボード 1</title>
<polygon class="st0" points="43.2,7.4 85.9,50 43.2,92.6 50.3,99.7 92.9,57.1 100,50 92.9,42.9 50.3,0.3 "/>
<rect y="45" class="st0" width="90.3" height="10"/>
</svg>
